package com.vtrio.rules;

import com.vtrio.model.Product;
import function com.vtrio.util.RuleLogUtil.logRule;


rule "Sale Offer"	
salience 2
no-loop true
	when
	   productObject : Product(sale==true);
	then
	  productObject.setDiscount(20l);	
	  logRule("Sale Offer",productObject);
	 	
end;

rule "XMAS Offer"	
salience 1
no-loop true
	when
	   productObject : Product(orderDate != null && orderDate.getDate() == 25 && orderDate.getMonth()==11);
	then
	  productObject.setDiscount(20l);
	  logRule("XMAS Offer",productObject);
	  		
end;

